…
#Reading new data set back in
(gap_read <- read_csv("asia_reorder.csv"))
```

    ## Parsed with column specification:
    ## cols(
    ##   country = col_character(),
    ##   continent = col_character(),
    ##   year = col_integer(),
    ##   lifeExp = col_double(),
    ##   pop = col_integer(),
    ##   gdpPercap = col_double()
    ## )

    ## # A tibble: 396 x 6
    ##    country     continent  year lifeExp      pop gdpPercap
    ##    <chr>       <chr>     <int>   <dbl>    <int>     <dbl>
    ##  1 Afghanistan Asia       1952    28.8  8425333      779.
    ##  2 Afghanistan Asia       1957    30.3  9240934      821.
    ##  3 Afghanistan Asia       1962    32.0 10267083      853.
    ##  4 Afghanistan Asia       1967    34.0 11537966      836.
    ##  5 Afghanistan Asia       1972    36.1 13079460      740.
    ##  6 Afghanistan Asia       1977    38.4 14880372      786.
    ##  7 Afghanistan Asia       1982    39.9 12881816      978.
    ##  8 Afghanistan Asia       1987    40.8 13867957      852.
    ##  9 Afghanistan Asia       1992    41.7 16317921      649.
    ## 10 Afghanistan Asia       1997    41.8 22227415      635.
    ## # ... with 386 more rows
…
``` r
#Create an object called 'scandinavia' to store the desired data 
(scandinavia <- 
  #call upon the gapminder dataset
  gapminder %>%
  #Filter so that we are only using Canada, Russia, Japan, and United States
  filter(country=="Finland" | country == "Norway" | country == "Sweden" | country == "Iceland" | country == "Denmark") %>% 
  #Mae table cleaner by rounding the life expectancies off the nearest integer
  mutate(lifeExp = round(lifeExp, 0)) %>% 
  #Select the columns country, year and life expectancy
  select(country, year, lifeExp, gdpPercap))
```

    ## # A tibble: 60 x 4
    ##    country  year lifeExp gdpPercap
    ##    <fct>   <int>   <dbl>     <dbl>
    ##  1 Denmark  1952      71     9692.
    ##  2 Denmark  1957      72    11100.
    ##  3 Denmark  1962      72    13583.
    ##  4 Denmark  1967      73    15937.
    ##  5 Denmark  1972      73    18866.
    ##  6 Denmark  1977      75    20423.
    ##  7 Denmark  1982      75    21688.
    ##  8 Denmark  1987      75    25116.
    ##  9 Denmark  1992      75    26407.
    ## 10 Denmark  1997      76    29804.
    ## # ... with 50 more rows
…
